…
## Author

Adrien Taudière

## Examples

``` r
library(MiscMetabar)
data(data_fungi)
# \donttest{
flagged <- identify_contam_chimera_pq(data_fungi, method = "dada2")
#> ℹ chimera (dada2): flagged 450 of 1420 taxa.
flagged
#> contam_tbl: 450 flagged taxons from methods "chimera"
#> # A tibble: 450 × 4
#>    taxon  method  chimera_method n_reads
#>    <chr>  <chr>   <chr>            <dbl>
#>  1 ASV94  chimera dada2             5842
#>  2 ASV120 chimera dada2             4558
#>  3 ASV128 chimera dada2             4298
#>  4 ASV158 chimera dada2             3193
#>  5 ASV159 chimera dada2             3164
#>  6 ASV170 chimera dada2             2860
#>  7 ASV178 chimera dada2             2743
#>  8 ASV182 chimera dada2             2712
#>  9 ASV186 chimera dada2             2611
#> 10 ASV201 chimera dada2             2294
#> # ℹ 440 more rows
…
