…
[`phyloseq::tax_table()`](https://rdrr.io/pkg/phyloseq/man/tax_table-methods.html)

## Author

Adrien Taudière

## Examples

``` r
# \donttest{
library(MiscMetabar)
# Numeric-looking ranks are converted to numeric
df <- tax_table_to_df(data_fungi_mini)
df
#> # A tibble: 45 × 13
#>    taxon Domain Phylum Class Order Family Genus Species Trophic.Mode Guild Trait
#>    <chr> <chr>  <chr>  <chr> <chr> <chr>  <chr> <chr>   <chr>        <chr> <chr>
#>  1 ASV7  Fungi  Basid… Agar… Russ… Stere… NA    NA      Saprotroph   Wood… NULL 
#>  2 ASV8  Fungi  Basid… Agar… Russ… Stere… Ster… ostrea  Saprotroph   Unde… Whit…
#>  3 ASV12 Fungi  Basid… Agar… Hyme… Schiz… Xylo… radulo… Saprotroph   Unde… Whit…
#>  4 ASV18 Fungi  Basid… Agar… Russ… Stere… Ster… ostrea  Saprotroph   Unde… Whit…
#>  5 ASV25 Fungi  Basid… Agar… Agar… Lyoph… Ossi… lachno… Saprotroph   Wood… Brow…
#>  6 ASV26 Fungi  Basid… Agar… Russ… Stere… Ster… hirsut… Saprotroph   Unde… Whit…
#>  7 ASV27 Fungi  Basid… Agar… Poly… Stecc… Antr… brasil… Saprotroph   Wood… Whit…
#>  8 ASV29 Fungi  Basid… Agar… Auri… Exidi… Basi… eyrei   Saprotroph   Unde… NULL 
#>  9 ASV32 Fungi  Basid… Agar… Cant… Canth… Sist… oblong… Saprotroph-… Ecto… Whit…
#> 10 ASV34 Fungi  Basid… Agar… Agar… Entol… Ento… NA      Saprotroph   Unde… NULL 
#> # ℹ 35 more rows
#> # ℹ 2 more variables: Confidence.Ranking <chr>, Genus_species <chr>
…
